<svg width="130" height="26" viewBox="0 0 130 26" fill="none" xmlns="http://www.w3.org/2000/svg" class="logo-cuptrade-svg">
<g class="logo-part_cupword-svg" fill="#989798">
  <path d="M32.1429 13.374C32.1429 12.4418 32.2897 11.564 32.5941 10.7408C32.8985 9.92296 33.3333 9.20331 33.9041 8.58724C34.4749 7.97117 35.1652 7.48595 35.9806 7.12067C36.796 6.7663 37.7255 6.58093 38.7692 6.58093C39.4542 6.58093 40.0793 6.64636 40.6501 6.7663C41.2208 6.88624 41.7753 7.06615 42.3134 7.29513L41.5524 10.2119C41.21 10.0865 40.8349 9.96658 40.4272 9.8739C40.0195 9.77576 39.5629 9.72124 39.0628 9.72124C37.9865 9.72124 37.182 10.0593 36.6547 10.7298C36.122 11.4004 35.861 12.2782 35.861 13.374C35.861 14.5353 36.1057 15.4349 36.6058 16.0727C37.1059 16.7052 37.9702 17.0268 39.2095 17.0268C39.6499 17.0268 40.1228 16.9832 40.6283 16.9069C41.1339 16.8196 41.5959 16.6943 42.0199 16.5143L42.5309 19.5075C42.1069 19.6819 41.5742 19.8346 40.9382 19.9654C40.3076 20.1017 39.6064 20.1617 38.8399 20.1617C37.6658 20.1617 36.6547 19.9872 35.8067 19.6328C34.9587 19.2785 34.2629 18.8042 33.7193 18.2044C33.1757 17.5993 32.7734 16.8851 32.518 16.0618C32.2679 15.2331 32.1429 14.339 32.1429 13.374Z"/>
  <path d="M55.2613 19.3819C54.6416 19.5563 53.8426 19.7254 52.8695 19.8835C51.8965 20.0416 50.8637 20.1124 49.7874 20.1124C48.6948 20.1124 47.787 19.9652 47.064 19.6708C46.341 19.3764 45.7648 18.9621 45.3408 18.4278C44.9168 17.9044 44.6178 17.272 44.4385 16.536C44.2591 15.8 44.1667 14.9931 44.1667 14.1099V6.92969H47.8033V13.6683C47.8033 14.8404 47.9555 15.6909 48.2653 16.2143C48.5752 16.7377 49.1622 16.9994 50.0102 16.9994C50.2712 16.9994 50.5484 16.9885 50.8419 16.9612C51.1355 16.9394 51.3964 16.9122 51.6247 16.874V6.92969H55.2613L55.2613 19.3819Z"/>
  <path d="M69.95 13.3739C69.95 14.3771 69.8304 15.2766 69.5858 16.0944C69.3411 16.9122 68.9824 17.61 68.5094 18.2043C68.042 18.7877 67.4494 19.2456 66.7482 19.5782C66.047 19.9053 65.2425 20.0689 64.3292 20.0689C63.8237 20.0689 63.3562 20.0143 62.9105 19.9217C62.4702 19.8235 62.0462 19.6872 61.6439 19.5073V24.3595H58.0019V7.37678C58.328 7.27319 58.7031 7.18596 59.1271 7.09328C59.5511 7.00059 59.9914 6.92427 60.4589 6.85884C60.9209 6.79342 61.3939 6.74435 61.8722 6.70074C62.3506 6.66257 62.8126 6.63531 63.2529 6.63531C64.3075 6.63531 65.2533 6.79887 66.085 7.11508C66.9167 7.43675 67.618 7.88926 68.1833 8.46171C68.7541 9.03961 69.1889 9.74837 69.4933 10.5825C69.8032 11.4167 69.95 12.3489 69.95 13.3739ZM66.2372 13.472C66.2372 12.3489 65.9818 11.4439 65.4762 10.7679C64.9707 10.0918 64.2205 9.74836 63.2258 9.74836C62.8996 9.74836 62.6006 9.75927 62.3234 9.78653C62.0462 9.81379 61.8179 9.84105 61.6385 9.87376V16.4651C61.8668 16.6123 62.1658 16.7377 62.53 16.8304C62.8942 16.934 63.2638 16.9776 63.6443 16.9776C65.3729 16.9776 66.2372 15.8055 66.2372 13.472Z"/>
</g>
<g class="logo-part_tradeword-svg" fill="#000100">
  <path d="M71.9552 3.7237L75.5972 3.13489V6.93488H79.9677V9.9716H75.5972V14.5022C75.5972 15.2709 75.7277 15.8815 75.9995 16.3395C76.2659 16.7974 76.8095 17.0264 77.6248 17.0264C78.0162 17.0264 78.4185 16.9882 78.837 16.9119C79.2502 16.841 79.6307 16.7374 79.9677 16.6066L80.4841 19.4471C80.0438 19.627 79.5546 19.7851 79.0164 19.9105C78.4783 20.0359 77.8205 20.1067 77.0378 20.1067C76.043 20.1067 75.2222 19.9704 74.5699 19.7033C73.9176 19.4362 73.3957 19.0545 73.0043 18.5747C72.6129 18.095 72.3411 17.5116 72.1889 16.8247C72.0367 16.1377 71.9606 15.3799 71.9606 14.5458V3.7237H71.9552Z"/>
  <path d="M89.9919 10.1622C89.6658 10.0804 89.2852 9.99865 88.8449 9.90596C88.4046 9.81328 87.9317 9.77512 87.4262 9.77512C87.1979 9.77512 86.9261 9.79147 86.6108 9.83509C86.2955 9.8787 86.0454 9.92232 85.8878 9.96593V19.823H82.2458V7.6107C82.9035 7.38717 83.67 7.1691 84.556 6.96738C85.4421 6.7602 86.4368 6.65662 87.524 6.65662C87.7197 6.65662 87.9589 6.66752 88.2361 6.69478C88.5133 6.71659 88.7906 6.75475 89.0678 6.79837C89.345 6.83653 89.6223 6.8856 89.8941 6.94012C90.1659 6.99464 90.4105 7.06551 90.6007 7.14729L89.9919 10.1622Z"/>
  <path d="M96.2479 6.58606C97.3187 6.58606 98.2156 6.706 98.9332 6.95134C99.6507 7.19668 100.227 7.5456 100.656 8.00356C101.086 8.46152 101.396 9.01762 101.575 9.67185C101.749 10.3261 101.841 11.0512 101.841 11.8526V19.4526C101.32 19.5671 100.597 19.7034 99.6725 19.8561C98.7375 20.0087 97.6177 20.085 96.2968 20.085C95.4651 20.085 94.7095 20.0087 94.0354 19.867C93.3614 19.7252 92.7797 19.4799 92.2905 19.1419C91.8013 18.8038 91.4262 18.3677 91.1653 17.8334C90.9044 17.2991 90.7739 16.6285 90.7739 15.8489C90.7739 15.0965 90.9261 14.4586 91.2305 13.9353C91.5349 13.4119 91.9317 12.9975 92.4427 12.6868C92.9483 12.3706 93.5245 12.147 94.1768 12.0107C94.8236 11.8744 95.4977 11.7981 96.2043 11.7981C96.6773 11.7981 97.0904 11.8254 97.46 11.8635C97.8242 11.9071 98.1232 11.9617 98.3515 12.0216V11.6891C98.3515 11.0675 98.1613 10.566 97.7862 10.1952C97.4111 9.8136 96.7588 9.62824 95.8347 9.62824C95.215 9.62824 94.6008 9.6773 93.9974 9.75908C93.3994 9.85722 92.8776 9.97716 92.4373 10.1353L91.9698 7.19668C92.1818 7.13125 92.4482 7.06583 92.7635 6.9895C93.0787 6.91318 93.4266 6.8532 93.7963 6.79869C94.1714 6.73871 94.5682 6.68965 94.9867 6.65148C95.4053 6.60787 95.8239 6.58606 96.2479 6.58606ZM96.5414 17.2718C96.9002 17.2718 97.2426 17.2664 97.5633 17.2446C97.8949 17.2282 98.1504 17.2064 98.3516 17.1683V14.4041C98.2048 14.3769 97.9873 14.3387 97.6884 14.306C97.3948 14.2733 97.1285 14.2569 96.8893 14.2569C96.5468 14.2569 96.2207 14.2787 95.9163 14.3169C95.6173 14.3605 95.3509 14.4368 95.1226 14.5513C94.8943 14.6658 94.7149 14.8239 94.5845 15.0202C94.454 15.2165 94.3888 15.4563 94.3888 15.7562C94.3888 16.3232 94.579 16.7266 94.9595 16.9447C95.3401 17.1628 95.8728 17.2718 96.5414 17.2718Z"/>
  <path d="M115.801 19.4035C115.475 19.5071 115.1 19.5943 114.676 19.687C114.252 19.7797 113.811 19.856 113.344 19.9214C112.882 19.9868 112.409 20.0359 111.925 20.0795C111.447 20.1177 110.985 20.145 110.544 20.145C109.49 20.145 108.544 19.9868 107.712 19.6761C106.886 19.3653 106.185 18.9183 105.608 18.3404C105.043 17.7625 104.603 17.0592 104.304 16.2305C104.005 15.4018 103.853 14.4804 103.853 13.45C103.853 12.4087 103.978 11.46 104.239 10.6204C104.505 9.78084 104.875 9.06119 105.364 8.47238C105.853 7.88357 106.451 7.43651 107.158 7.1203C107.87 6.80954 108.68 6.65688 109.593 6.65688C110.099 6.65688 110.55 6.70595 110.952 6.80409C111.343 6.90222 111.746 7.03852 112.159 7.21843V1.38487L115.801 0.801514V19.4035V19.4035ZM107.565 13.281C107.565 14.4041 107.815 15.3145 108.321 16.0015C108.827 16.683 109.577 17.0265 110.571 17.0265C110.898 17.0265 111.197 17.0155 111.474 16.9883C111.751 16.961 111.979 16.9338 112.159 16.9011V10.2661C111.93 10.1189 111.631 9.99346 111.267 9.89533C110.903 9.79719 110.528 9.75358 110.158 9.75358C108.424 9.74813 107.565 10.9257 107.565 13.281Z"/>
  <path d="M117.921 13.4718C117.921 12.3324 118.101 11.3292 118.454 10.4733C118.802 9.61188 119.259 8.89768 119.835 8.32522C120.4 7.75822 121.063 7.32207 121.797 7.02767C122.542 6.73326 123.298 6.58606 124.086 6.58606C125.912 6.58606 127.353 7.15306 128.413 8.26525C129.467 9.38835 130 11.0348 130 13.2047C130 13.4173 129.989 13.6463 129.973 13.9025C129.956 14.1588 129.94 14.3823 129.924 14.5786H121.661C121.743 15.331 122.091 15.9252 122.71 16.3668C123.33 16.8084 124.162 17.0265 125.206 17.0265C125.869 17.0265 126.526 16.9611 127.168 16.8466C127.809 16.7266 128.337 16.5685 128.744 16.3886L129.234 19.3545C129.043 19.4581 128.777 19.5507 128.451 19.6543C128.125 19.7525 127.76 19.8342 127.364 19.9051C126.967 19.9814 126.537 20.0414 126.081 20.0905C125.624 20.145 125.167 20.1668 124.716 20.1668C123.558 20.1668 122.553 19.9978 121.694 19.6543C120.84 19.3109 120.128 18.842 119.563 18.2423C118.998 17.6426 118.585 16.9393 118.318 16.116C118.063 15.3037 117.921 14.4259 117.921 13.4718ZM126.483 12.0762C126.467 11.7654 126.412 11.471 126.325 11.1711C126.238 10.8713 126.097 10.615 125.912 10.3806C125.722 10.1571 125.488 9.96626 125.2 9.8136C124.912 9.67185 124.564 9.59552 124.14 9.59552C123.732 9.59552 123.379 9.67185 123.091 9.80815C122.803 9.94445 122.547 10.1298 122.352 10.3588C122.156 10.5878 122.009 10.8549 121.9 11.1548C121.792 11.4601 121.716 11.7654 121.667 12.0761H126.483V12.0762Z"/>
</g>
<g class="logo-part_cup-svg" fill="#DF312F">
  <path d="M3.517 25.243H17.8188L18.395 20.031H2.94623L3.517 25.243Z"/>
  <path d="M2.76189 18.3844H18.5749L19.0968 13.6249H2.24548L2.76189 18.3844Z"/>
  <path d="M21.3359 4.86371H0V8.59828H1.69056L2.0602 11.9785H19.2757L19.6453 8.59828H21.3359V4.86371Z"/>
  <path d="M17.9221 0H3.41912L1.58722 3.21664H19.7485L17.9221 0Z"/>
</g>
</svg>
